{
    "coord": {
        "lon": 9.259,
        "lat": 44.452
    },
    "list": [
        {
            "main": {
                "aqi": 2
            },
            "components": {
                "co": 247,
                "no": 0.04,
                "no2": 1.08,
                "o3": 98.71,
                "so2": 0.81,
                "pm2_5": 11.03,
                "pm10": 11.71,
                "nh3": 4.69
            },
            "dt": 1647709200
        },
        {
            "main": {
                "aqi": 2
            },
            "components": {
                "co": 257.02,
                "no": 0,
                "no2": 1.37,
                "o3": 100.14,
                "so2": 0.75,
                "pm2_5": 12.62,
                "pm10": 13.42,
                "nh3": 5.51
            },
            "dt": 1647712800
        },
        {
            "main": {
                "aqi": 2
            },
            "components": {
                "co": 267.03,
                "no": 0,
                "no2": 1.63,
                "o3": 100.14,
                "so2": 0.65,
                "pm2_5": 13.83,
                "pm10": 14.75,
                "nh3": 4.94
            },
            "dt": 1647716400
        },
        {
            "main": {
                "aqi": 2
            },
            "components": {
                "co": 270.37,
                "no": 0,
                "no2": 1.84,
                "o3": 97.28,
                "so2": 0.6,
                "pm2_5": 13.67,
                "pm10": 14.62,
                "nh3": 4.37
            },
            "dt": 1647720000
        },
        {
            "main": {
                "aqi": 2
            },
            "components": {
                "co": 270.37,
                "no": 0,
                "no2": 1.91,
                "o3": 95.84,
                "so2": 0.63,
                "pm2_5": 12.42,
                "pm10": 13.33,
                "nh3": 4.43
            },
            "dt": 1647723600
        },
        {
            "main": {
                "aqi": 2
            },
            "components": {
                "co": 270.37,
                "no": 0,
                "no2": 2.01,
                "o3": 90.84,
                "so2": 0.52,
                "pm2_5": 11.65,
                "pm10": 12.52,
                "nh3": 3.55
            },
            "dt": 1647727200
        },
        {
            "main": {
                "aqi": 2
            },
            "components": {
                "co": 270.37,
                "no": 0,
                "no2": 1.99,
                "o3": 85.12,
                "so2": 0.66,
                "pm2_5": 11.47,
                "pm10": 12.3,
                "nh3": 6.84
            },
            "dt": 1647730800
        },
        {
            "main": {
                "aqi": 2
            },
            "components": {
                "co": 270.37,
                "no": 0,
                "no2": 1.78,
                "o3": 82.97,
                "so2": 0.75,
                "pm2_5": 11.7,
                "pm10": 12.51,
                "nh3": 8.04
            },
            "dt": 1647734400
        },
        {
            "main": {
                "aqi": 2
            },
            "components": {
                "co": 270.37,
                "no": 0,
                "no2": 1.54,
                "o3": 81.54,
                "so2": 0.73,
                "pm2_5": 11.73,
                "pm10": 12.53,
                "nh3": 8.36
            },
            "dt": 1647738000
        },
        {
            "main": {
                "aqi": 2
            },
            "components": {
                "co": 270.37,
                "no": 0,
                "no2": 1.32,
                "o3": 80.82,
                "so2": 0.69,
                "pm2_5": 11.09,
                "pm10": 11.87,
                "nh3": 8.23
            },
            "dt": 1647741600
        },
        {
            "main": {
                "aqi": 2
            },
            "components": {
                "co": 267.03,
                "no": 0,
                "no2": 1.1,
                "o3": 81.54,
                "so2": 0.75,
                "pm2_5": 9.89,
                "pm10": 10.62,
                "nh3": 7.6
            },
            "dt": 1647745200
        },
        {
            "main": {
                "aqi": 2
            },
            "components": {
                "co": 260.35,
                "no": 0,
                "no2": 0.92,
                "o3": 84.4,
                "so2": 0.86,
                "pm2_5": 8.48,
                "pm10": 9.12,
                "nh3": 6.52
            },
            "dt": 1647748800
        },
        {
            "main": {
                "aqi": 2
            },
            "components": {
                "co": 257.02,
                "no": 0,
                "no2": 0.87,
                "o3": 85.83,
                "so2": 0.93,
                "pm2_5": 7.74,
                "pm10": 8.32,
                "nh3": 5.57
            },
            "dt": 1647752400
        },
        {
            "main": {
                "aqi": 2
            },
            "components": {
                "co": 257.02,
                "no": 0,
                "no2": 1.07,
                "o3": 87.98,
                "so2": 1,
                "pm2_5": 8.13,
                "pm10": 8.71,
                "nh3": 4.88
            },
            "dt": 1647756000
        },
        {
            "main": {
                "aqi": 2
            },
            "components": {
                "co": 257.02,
                "no": 0.06,
                "no2": 1.31,
                "o3": 92.98,
                "so2": 1.21,
                "pm2_5": 9.4,
                "pm10": 10.03,
                "nh3": 3.58
            },
            "dt": 1647759600
        },
        {
            "main": {
                "aqi": 2
            },
            "components": {
                "co": 257.02,
                "no": 0.2,
                "no2": 1.36,
                "o3": 90.84,
                "so2": 1.03,
                "pm2_5": 10.17,
                "pm10": 10.85,
                "nh3": 2.38
            },
            "dt": 1647763200
        },
        {
            "main": {
                "aqi": 2
            },
            "components": {
                "co": 253.68,
                "no": 0.3,
                "no2": 1.31,
                "o3": 88.69,
                "so2": 1.01,
                "pm2_5": 11.16,
                "pm10": 11.92,
                "nh3": 2.53
            },
            "dt": 1647766800
        },
        {
            "main": {
                "aqi": 2
            },
            "components": {
                "co": 250.34,
                "no": 0.28,
                "no2": 1.08,
                "o3": 90.84,
                "so2": 1.16,
                "pm2_5": 12.23,
                "pm10": 13.03,
                "nh3": 2.82
            },
            "dt": 1647770400
        },
        {
            "main": {
                "aqi": 2
            },
            "components": {
                "co": 247,
                "no": 0.21,
                "no2": 0.79,
                "o3": 94.41,
                "so2": 1.13,
                "pm2_5": 12.23,
                "pm10": 12.98,
                "nh3": 2.91
            },
            "dt": 1647774000
        },
        {
            "main": {
                "aqi": 2
            },
            "components": {
                "co": 247,
                "no": 0.17,
                "no2": 0.68,
                "o3": 95.84,
                "so2": 1.07,
                "pm2_5": 12.27,
                "pm10": 13.02,
                "nh3": 3.14
            },
            "dt": 1647777600
        },
        {
            "main": {
                "aqi": 2
            },
            "components": {
                "co": 247,
                "no": 0.15,
                "no2": 0.67,
                "o3": 98.71,
                "so2": 0.98,
                "pm2_5": 13.11,
                "pm10": 13.89,
                "nh3": 3.55
            },
            "dt": 1647781200
        },
        {
            "main": {
                "aqi": 2
            },
            "components": {
                "co": 250.34,
                "no": 0.12,
                "no2": 0.66,
                "o3": 101.57,
                "so2": 0.88,
                "pm2_5": 13.54,
                "pm10": 14.37,
                "nh3": 3.96
            },
            "dt": 1647784800
        },
        {
            "main": {
                "aqi": 2
            },
            "components": {
                "co": 250.34,
                "no": 0.09,
                "no2": 0.7,
                "o3": 103,
                "so2": 0.79,
                "pm2_5": 13.98,
                "pm10": 14.9,
                "nh3": 4.81
            },
            "dt": 1647788400
        },
        {
            "main": {
                "aqi": 2
            },
            "components": {
                "co": 250.34,
                "no": 0.07,
                "no2": 0.8,
                "o3": 103,
                "so2": 0.74,
                "pm2_5": 14.3,
                "pm10": 15.3,
                "nh3": 6.02
            },
            "dt": 1647792000
        },
        {
            "main": {
                "aqi": 2
            },
            "components": {
                "co": 250.34,
                "no": 0.03,
                "no2": 1.05,
                "o3": 103,
                "so2": 0.71,
                "pm2_5": 14.79,
                "pm10": 15.8,
                "nh3": 7.22
            },
            "dt": 1647795600
        },
        {
            "main": {
                "aqi": 2
            },
            "components": {
                "co": 253.68,
                "no": 0,
                "no2": 1.24,
                "o3": 104.43,
                "so2": 0.67,
                "pm2_5": 14.38,
                "pm10": 15.35,
                "nh3": 7.79
            },
            "dt": 1647799200
        },
        {
            "main": {
                "aqi": 2
            },
            "components": {
                "co": 253.68,
                "no": 0,
                "no2": 1.3,
                "o3": 104.43,
                "so2": 0.69,
                "pm2_5": 13.01,
                "pm10": 13.91,
                "nh3": 7.85
            },
            "dt": 1647802800
        },
        {
            "main": {
                "aqi": 2
            },
            "components": {
                "co": 253.68,
                "no": 0,
                "no2": 1.39,
                "o3": 104.43,
                "so2": 0.89,
                "pm2_5": 11.96,
                "pm10": 12.85,
                "nh3": 7.98
            },
            "dt": 1647806400
        },
        {
            "main": {
                "aqi": 2
            },
            "components": {
                "co": 257.02,
                "no": 0,
                "no2": 1.39,
                "o3": 105.86,
                "so2": 1.57,
                "pm2_5": 10.98,
                "pm10": 11.86,
                "nh3": 8.36
            },
            "dt": 1647810000
        },
        {
            "main": {
                "aqi": 2
            },
            "components": {
                "co": 257.02,
                "no": 0,
                "no2": 1.23,
                "o3": 107.29,
                "so2": 2.33,
                "pm2_5": 10.32,
                "pm10": 11.14,
                "nh3": 7.41
            },
            "dt": 1647813600
        },
        {
            "main": {
                "aqi": 2
            },
            "components": {
                "co": 257.02,
                "no": 0,
                "no2": 1.02,
                "o3": 108.72,
                "so2": 2.71,
                "pm2_5": 10.27,
                "pm10": 11.03,
                "nh3": 5.95
            },
            "dt": 1647817200
        },
        {
            "main": {
                "aqi": 2
            },
            "components": {
                "co": 257.02,
                "no": 0,
                "no2": 0.77,
                "o3": 110.15,
                "so2": 2.74,
                "pm2_5": 10.01,
                "pm10": 10.67,
                "nh3": 4.62
            },
            "dt": 1647820800
        },
        {
            "main": {
                "aqi": 2
            },
            "components": {
                "co": 253.68,
                "no": 0,
                "no2": 0.58,
                "o3": 110.15,
                "so2": 2.47,
                "pm2_5": 9.38,
                "pm10": 9.97,
                "nh3": 3.83
            },
            "dt": 1647824400
        },
        {
            "main": {
                "aqi": 2
            },
            "components": {
                "co": 253.68,
                "no": 0,
                "no2": 0.49,
                "o3": 110.15,
                "so2": 2.27,
                "pm2_5": 9.08,
                "pm10": 9.66,
                "nh3": 3.48
            },
            "dt": 1647828000
        },
        {
            "main": {
                "aqi": 2
            },
            "components": {
                "co": 253.68,
                "no": 0,
                "no2": 0.44,
                "o3": 108.72,
                "so2": 2.21,
                "pm2_5": 8.99,
                "pm10": 9.58,
                "nh3": 3.36
            },
            "dt": 1647831600
        },
        {
            "main": {
                "aqi": 2
            },
            "components": {
                "co": 253.68,
                "no": 0,
                "no2": 0.45,
                "o3": 108.72,
                "so2": 2.15,
                "pm2_5": 8.86,
                "pm10": 9.45,
                "nh3": 3.33
            },
            "dt": 1647835200
        },
        {
            "main": {
                "aqi": 2
            },
            "components": {
                "co": 253.68,
                "no": 0,
                "no2": 0.54,
                "o3": 105.86,
                "so2": 2.12,
                "pm2_5": 8.84,
                "pm10": 9.42,
                "nh3": 3.48
            },
            "dt": 1647838800
        },
        {
            "main": {
                "aqi": 2
            },
            "components": {
                "co": 253.68,
                "no": 0,
                "no2": 0.86,
                "o3": 104.43,
                "so2": 2.09,
                "pm2_5": 8.99,
                "pm10": 9.58,
                "nh3": 3.67
            },
            "dt": 1647842400
        },
        {
            "main": {
                "aqi": 2
            },
            "components": {
                "co": 253.68,
                "no": 0.07,
                "no2": 1.54,
                "o3": 101.57,
                "so2": 2.03,
                "pm2_5": 8.97,
                "pm10": 9.57,
                "nh3": 3.67
            },
            "dt": 1647846000
        },
        {
            "main": {
                "aqi": 2
            },
            "components": {
                "co": 250.34,
                "no": 0.25,
                "no2": 1.65,
                "o3": 98.71,
                "so2": 1.65,
                "pm2_5": 8.85,
                "pm10": 9.45,
                "nh3": 3.29
            },
            "dt": 1647849600
        },
        {
            "main": {
                "aqi": 2
            },
            "components": {
                "co": 243.66,
                "no": 0.3,
                "no2": 1.36,
                "o3": 98.71,
                "so2": 1.48,
                "pm2_5": 8.55,
                "pm10": 9.14,
                "nh3": 2.82
            },
            "dt": 1647853200
        },
        {
            "main": {
                "aqi": 2
            },
            "components": {
                "co": 233.65,
                "no": 0.19,
                "no2": 0.77,
                "o3": 103,
                "so2": 1.37,
                "pm2_5": 7.51,
                "pm10": 8.05,
                "nh3": 2.38
            },
            "dt": 1647856800
        },
        {
            "main": {
                "aqi": 2
            },
            "components": {
                "co": 226.97,
                "no": 0.13,
                "no2": 0.51,
                "o3": 104.43,
                "so2": 1.13,
                "pm2_5": 6.71,
                "pm10": 7.2,
                "nh3": 2.38
            },
            "dt": 1647860400
        },
        {
            "main": {
                "aqi": 2
            },
            "components": {
                "co": 226.97,
                "no": 0.11,
                "no2": 0.46,
                "o3": 104.43,
                "so2": 1.03,
                "pm2_5": 6.55,
                "pm10": 7.03,
                "nh3": 2.5
            },
            "dt": 1647864000
        },
        {
            "main": {
                "aqi": 2
            },
            "components": {
                "co": 226.97,
                "no": 0.12,
                "no2": 0.5,
                "o3": 104.43,
                "so2": 0.98,
                "pm2_5": 6.92,
                "pm10": 7.42,
                "nh3": 2.79
            },
            "dt": 1647867600
        },
        {
            "main": {
                "aqi": 2
            },
            "components": {
                "co": 226.97,
                "no": 0.13,
                "no2": 0.6,
                "o3": 103,
                "so2": 0.94,
                "pm2_5": 7.68,
                "pm10": 8.21,
                "nh3": 3.1
            },
            "dt": 1647871200
        },
        {
            "main": {
                "aqi": 2
            },
            "components": {
                "co": 230.31,
                "no": 0.14,
                "no2": 0.76,
                "o3": 101.57,
                "so2": 0.92,
                "pm2_5": 8.56,
                "pm10": 9.12,
                "nh3": 3.42
            },
            "dt": 1647874800
        },
        {
            "main": {
                "aqi": 2
            },
            "components": {
                "co": 230.31,
                "no": 0.18,
                "no2": 1.26,
                "o3": 97.28,
                "so2": 0.78,
                "pm2_5": 9.47,
                "pm10": 10.1,
                "nh3": 3.96
            },
            "dt": 1647878400
        },
        {
            "main": {
                "aqi": 2
            },
            "components": {
                "co": 233.65,
                "no": 0.14,
                "no2": 2.27,
                "o3": 88.69,
                "so2": 0.55,
                "pm2_5": 10.27,
                "pm10": 10.98,
                "nh3": 4.5
            },
            "dt": 1647882000
        },
        {
            "main": {
                "aqi": 2
            },
            "components": {
                "co": 240.33,
                "no": 0.01,
                "no2": 3,
                "o3": 82.25,
                "so2": 0.39,
                "pm2_5": 10.94,
                "pm10": 11.73,
                "nh3": 5
            },
            "dt": 1647885600
        },
        {
            "main": {
                "aqi": 2
            },
            "components": {
                "co": 250.34,
                "no": 0,
                "no2": 3,
                "o3": 80.82,
                "so2": 0.34,
                "pm2_5": 11.83,
                "pm10": 12.69,
                "nh3": 4.94
            },
            "dt": 1647889200
        },
        {
            "main": {
                "aqi": 2
            },
            "components": {
                "co": 260.35,
                "no": 0,
                "no2": 2.74,
                "o3": 80.82,
                "so2": 0.36,
                "pm2_5": 12.81,
                "pm10": 13.7,
                "nh3": 5.26
            },
            "dt": 1647892800
        },
        {
            "main": {
                "aqi": 2
            },
            "components": {
                "co": 267.03,
                "no": 0,
                "no2": 2.46,
                "o3": 81.54,
                "so2": 0.48,
                "pm2_5": 13.65,
                "pm10": 14.55,
                "nh3": 7.35
            },
            "dt": 1647896400
        },
        {
            "main": {
                "aqi": 2
            },
            "components": {
                "co": 273.71,
                "no": 0,
                "no2": 2.19,
                "o3": 85.83,
                "so2": 0.6,
                "pm2_5": 14.13,
                "pm10": 14.99,
                "nh3": 8.23
            },
            "dt": 1647900000
        },
        {
            "main": {
                "aqi": 2
            },
            "components": {
                "co": 277.04,
                "no": 0,
                "no2": 1.76,
                "o3": 92.98,
                "so2": 0.72,
                "pm2_5": 14.09,
                "pm10": 14.88,
                "nh3": 8.49
            },
            "dt": 1647903600
        },
        {
            "main": {
                "aqi": 2
            },
            "components": {
                "co": 277.04,
                "no": 0,
                "no2": 1.26,
                "o3": 101.57,
                "so2": 0.83,
                "pm2_5": 13.47,
                "pm10": 14.23,
                "nh3": 8.23
            },
            "dt": 1647907200
        },
        {
            "main": {
                "aqi": 2
            },
            "components": {
                "co": 273.71,
                "no": 0,
                "no2": 0.86,
                "o3": 107.29,
                "so2": 0.93,
                "pm2_5": 12.98,
                "pm10": 13.77,
                "nh3": 8.49
            },
            "dt": 1647910800
        },
        {
            "main": {
                "aqi": 2
            },
            "components": {
                "co": 273.71,
                "no": 0,
                "no2": 0.64,
                "o3": 110.15,
                "so2": 0.97,
                "pm2_5": 13.29,
                "pm10": 14.19,
                "nh3": 8.99
            },
            "dt": 1647914400
        },
        {
            "main": {
                "aqi": 2
            },
            "components": {
                "co": 277.04,
                "no": 0,
                "no2": 0.52,
                "o3": 110.15,
                "so2": 1.03,
                "pm2_5": 13.79,
                "pm10": 14.79,
                "nh3": 9.5
            },
            "dt": 1647918000
        },
        {
            "main": {
                "aqi": 2
            },
            "components": {
                "co": 277.04,
                "no": 0,
                "no2": 0.48,
                "o3": 110.15,
                "so2": 1.07,
                "pm2_5": 14.26,
                "pm10": 15.37,
                "nh3": 9.75
            },
            "dt": 1647921600
        },
        {
            "main": {
                "aqi": 2
            },
            "components": {
                "co": 280.38,
                "no": 0,
                "no2": 0.54,
                "o3": 111.58,
                "so2": 1.12,
                "pm2_5": 15,
                "pm10": 16.2,
                "nh3": 10.26
            },
            "dt": 1647925200
        },
        {
            "main": {
                "aqi": 2
            },
            "components": {
                "co": 280.38,
                "no": 0,
                "no2": 0.86,
                "o3": 113.01,
                "so2": 1.21,
                "pm2_5": 15.52,
                "pm10": 16.8,
                "nh3": 10.39
            },
            "dt": 1647928800
        },
        {
            "main": {
                "aqi": 2
            },
            "components": {
                "co": 273.71,
                "no": 0.07,
                "no2": 1.44,
                "o3": 111.58,
                "so2": 1.19,
                "pm2_5": 15.22,
                "pm10": 16.49,
                "nh3": 9.12
            },
            "dt": 1647932400
        },
        {
            "main": {
                "aqi": 2
            },
            "components": {
                "co": 267.03,
                "no": 0.21,
                "no2": 1.52,
                "o3": 108.72,
                "so2": 1.13,
                "pm2_5": 14.39,
                "pm10": 15.64,
                "nh3": 7.47
            },
            "dt": 1647936000
        },
        {
            "main": {
                "aqi": 2
            },
            "components": {
                "co": 253.68,
                "no": 0.26,
                "no2": 1.25,
                "o3": 105.86,
                "so2": 1.18,
                "pm2_5": 13.51,
                "pm10": 14.69,
                "nh3": 6.02
            },
            "dt": 1647939600
        },
        {
            "main": {
                "aqi": 2
            },
            "components": {
                "co": 243.66,
                "no": 0.18,
                "no2": 0.79,
                "o3": 108.72,
                "so2": 1.33,
                "pm2_5": 12.41,
                "pm10": 13.44,
                "nh3": 4.88
            },
            "dt": 1647943200
        },
        {
            "main": {
                "aqi": 2
            },
            "components": {
                "co": 240.33,
                "no": 0.13,
                "no2": 0.57,
                "o3": 111.58,
                "so2": 1.31,
                "pm2_5": 11.51,
                "pm10": 12.42,
                "nh3": 4.43
            },
            "dt": 1647946800
        },
        {
            "main": {
                "aqi": 2
            },
            "components": {
                "co": 236.99,
                "no": 0.12,
                "no2": 0.5,
                "o3": 113.01,
                "so2": 1.21,
                "pm2_5": 10.95,
                "pm10": 11.76,
                "nh3": 4.31
            },
            "dt": 1647950400
        },
        {
            "main": {
                "aqi": 2
            },
            "components": {
                "co": 236.99,
                "no": 0.11,
                "no2": 0.48,
                "o3": 113.01,
                "so2": 1.01,
                "pm2_5": 10.31,
                "pm10": 11,
                "nh3": 4.12
            },
            "dt": 1647954000
        },
        {
            "main": {
                "aqi": 2
            },
            "components": {
                "co": 236.99,
                "no": 0.11,
                "no2": 0.5,
                "o3": 113.01,
                "so2": 0.81,
                "pm2_5": 9.78,
                "pm10": 10.36,
                "nh3": 3.99
            },
            "dt": 1647957600
        },
        {
            "main": {
                "aqi": 2
            },
            "components": {
                "co": 240.33,
                "no": 0.11,
                "no2": 0.6,
                "o3": 111.58,
                "so2": 0.69,
                "pm2_5": 10.28,
                "pm10": 10.85,
                "nh3": 4.18
            },
            "dt": 1647961200
        },
        {
            "main": {
                "aqi": 2
            },
            "components": {
                "co": 247,
                "no": 0.11,
                "no2": 0.86,
                "o3": 110.15,
                "so2": 0.63,
                "pm2_5": 12.23,
                "pm10": 12.9,
                "nh3": 4.88
            },
            "dt": 1647964800
        },
        {
            "main": {
                "aqi": 2
            },
            "components": {
                "co": 253.68,
                "no": 0.06,
                "no2": 1.32,
                "o3": 107.29,
                "so2": 0.61,
                "pm2_5": 14.83,
                "pm10": 15.69,
                "nh3": 5.83
            },
            "dt": 1647968400
        },
        {
            "main": {
                "aqi": 2
            },
            "components": {
                "co": 263.69,
                "no": 0.01,
                "no2": 1.63,
                "o3": 105.86,
                "so2": 0.6,
                "pm2_5": 17.45,
                "pm10": 18.56,
                "nh3": 7.22
            },
            "dt": 1647972000
        },
        {
            "main": {
                "aqi": 2
            },
            "components": {
                "co": 273.71,
                "no": 0,
                "no2": 1.63,
                "o3": 107.29,
                "so2": 0.6,
                "pm2_5": 19.38,
                "pm10": 20.73,
                "nh3": 8.61
            },
            "dt": 1647975600
        },
        {
            "main": {
                "aqi": 2
            },
            "components": {
                "co": 277.04,
                "no": 0,
                "no2": 1.52,
                "o3": 108.72,
                "so2": 0.61,
                "pm2_5": 19.8,
                "pm10": 21.3,
                "nh3": 9.37
            },
            "dt": 1647979200
        },
        {
            "main": {
                "aqi": 2
            },
            "components": {
                "co": 280.38,
                "no": 0,
                "no2": 1.41,
                "o3": 110.15,
                "so2": 0.66,
                "pm2_5": 19.24,
                "pm10": 20.77,
                "nh3": 9.5
            },
            "dt": 1647982800
        },
        {
            "main": {
                "aqi": 2
            },
            "components": {
                "co": 277.04,
                "no": 0,
                "no2": 1.3,
                "o3": 111.58,
                "so2": 0.69,
                "pm2_5": 18.22,
                "pm10": 19.65,
                "nh3": 9.25
            },
            "dt": 1647986400
        },
        {
            "main": {
                "aqi": 2
            },
            "components": {
                "co": 273.71,
                "no": 0,
                "no2": 1.16,
                "o3": 111.58,
                "so2": 0.69,
                "pm2_5": 17.39,
                "pm10": 18.68,
                "nh3": 8.49
            },
            "dt": 1647990000
        },
        {
            "main": {
                "aqi": 2
            },
            "components": {
                "co": 270.37,
                "no": 0,
                "no2": 0.93,
                "o3": 110.15,
                "so2": 0.69,
                "pm2_5": 16.75,
                "pm10": 17.93,
                "nh3": 7.47
            },
            "dt": 1647993600
        },
        {
            "main": {
                "aqi": 2
            },
            "components": {
                "co": 267.03,
                "no": 0,
                "no2": 0.73,
                "o3": 108.72,
                "so2": 0.63,
                "pm2_5": 16.08,
                "pm10": 17.16,
                "nh3": 6.52
            },
            "dt": 1647997200
        },
        {
            "main": {
                "aqi": 2
            },
            "components": {
                "co": 263.69,
                "no": 0,
                "no2": 0.61,
                "o3": 107.29,
                "so2": 0.58,
                "pm2_5": 15.5,
                "pm10": 16.52,
                "nh3": 5.89
            },
            "dt": 1648000800
        },
        {
            "main": {
                "aqi": 2
            },
            "components": {
                "co": 263.69,
                "no": 0,
                "no2": 0.54,
                "o3": 104.43,
                "so2": 0.66,
                "pm2_5": 15.23,
                "pm10": 16.22,
                "nh3": 5.95
            },
            "dt": 1648004400
        },
        {
            "main": {
                "aqi": 2
            },
            "components": {
                "co": 260.35,
                "no": 0,
                "no2": 0.53,
                "o3": 104.43,
                "so2": 0.73,
                "pm2_5": 15.17,
                "pm10": 16.17,
                "nh3": 6.14
            },
            "dt": 1648008000
        },
        {
            "main": {
                "aqi": 2
            },
            "components": {
                "co": 260.35,
                "no": 0,
                "no2": 0.62,
                "o3": 104.43,
                "so2": 0.69,
                "pm2_5": 15.43,
                "pm10": 16.5,
                "nh3": 6.14
            },
            "dt": 1648011600
        },
        {
            "main": {
                "aqi": 2
            },
            "components": {
                "co": 263.69,
                "no": 0,
                "no2": 1.01,
                "o3": 105.86,
                "so2": 0.82,
                "pm2_5": 16.16,
                "pm10": 17.32,
                "nh3": 7.09
            },
            "dt": 1648015200
        },
        {
            "main": {
                "aqi": 2
            },
            "components": {
                "co": 263.69,
                "no": 0.07,
                "no2": 1.56,
                "o3": 110.15,
                "so2": 1,
                "pm2_5": 16.73,
                "pm10": 17.98,
                "nh3": 7.92
            },
            "dt": 1648018800
        },
        {
            "main": {
                "aqi": 2
            },
            "components": {
                "co": 263.69,
                "no": 0.21,
                "no2": 1.63,
                "o3": 110.15,
                "so2": 1.03,
                "pm2_5": 17.17,
                "pm10": 18.5,
                "nh3": 8.36
            },
            "dt": 1648022400
        },
        {
            "main": {
                "aqi": 2
            },
            "components": {
                "co": 257.02,
                "no": 0.25,
                "no2": 1.35,
                "o3": 110.15,
                "so2": 1.07,
                "pm2_5": 17.7,
                "pm10": 19.08,
                "nh3": 8.87
            },
            "dt": 1648026000
        },
        {
            "main": {
                "aqi": 2
            },
            "components": {
                "co": 247,
                "no": 0.2,
                "no2": 0.93,
                "o3": 111.58,
                "so2": 1.07,
                "pm2_5": 17.22,
                "pm10": 18.54,
                "nh3": 8.36
            },
            "dt": 1648029600
        },
        {
            "main": {
                "aqi": 2
            },
            "components": {
                "co": 236.99,
                "no": 0.15,
                "no2": 0.66,
                "o3": 108.72,
                "so2": 0.93,
                "pm2_5": 15.38,
                "pm10": 16.52,
                "nh3": 6.71
            },
            "dt": 1648033200
        },
        {
            "main": {
                "aqi": 2
            },
            "components": {
                "co": 230.31,
                "no": 0.12,
                "no2": 0.54,
                "o3": 105.86,
                "so2": 0.81,
                "pm2_5": 13.61,
                "pm10": 14.57,
                "nh3": 5.45
            },
            "dt": 1648036800
        },
        {
            "main": {
                "aqi": 2
            },
            "components": {
                "co": 226.97,
                "no": 0.16,
                "no2": 0.69,
                "o3": 98.71,
                "so2": 0.71,
                "pm2_5": 12.81,
                "pm10": 13.7,
                "nh3": 5.07
            },
            "dt": 1648040400
        },
        {
            "main": {
                "aqi": 2
            },
            "components": {
                "co": 230.31,
                "no": 0.27,
                "no2": 1.13,
                "o3": 92.98,
                "so2": 0.72,
                "pm2_5": 13.59,
                "pm10": 14.51,
                "nh3": 5.38
            },
            "dt": 1648044000
        },
        {
            "main": {
                "aqi": 2
            },
            "components": {
                "co": 240.33,
                "no": 0.39,
                "no2": 1.86,
                "o3": 91.55,
                "so2": 0.92,
                "pm2_5": 16.65,
                "pm10": 17.7,
                "nh3": 6.4
            },
            "dt": 1648047600
        },
        {
            "main": {
                "aqi": 3
            },
            "components": {
                "co": 253.68,
                "no": 0.5,
                "no2": 3.47,
                "o3": 94.41,
                "so2": 1.15,
                "pm2_5": 20.38,
                "pm10": 21.6,
                "nh3": 9.12
            },
            "dt": 1648051200
        },
        {
            "main": {
                "aqi": 3
            },
            "components": {
                "co": 263.69,
                "no": 0.3,
                "no2": 6.26,
                "o3": 91.55,
                "so2": 1.16,
                "pm2_5": 21.97,
                "pm10": 23.33,
                "nh3": 12.16
            },
            "dt": 1648054800
        },
        {
            "main": {
                "aqi": 3
            },
            "components": {
                "co": 267.03,
                "no": 0.02,
                "no2": 7.45,
                "o3": 87.98,
                "so2": 1.03,
                "pm2_5": 21.9,
                "pm10": 23.34,
                "nh3": 14.57
            },
            "dt": 1648058400
        },
        {
            "main": {
                "aqi": 3
            },
            "components": {
                "co": 267.03,
                "no": 0,
                "no2": 6.08,
                "o3": 83.69,
                "so2": 0.76,
                "pm2_5": 21.14,
                "pm10": 22.56,
                "nh3": 14.19
            },
            "dt": 1648062000
        },
        {
            "main": {
                "aqi": 3
            },
            "components": {
                "co": 267.03,
                "no": 0,
                "no2": 4.84,
                "o3": 80.11,
                "so2": 0.56,
                "pm2_5": 21.42,
                "pm10": 22.84,
                "nh3": 12.67
            },
            "dt": 1648065600
        },
        {
            "main": {
                "aqi": 3
            },
            "components": {
                "co": 273.71,
                "no": 0,
                "no2": 3.94,
                "o3": 78.68,
                "so2": 0.47,
                "pm2_5": 22.48,
                "pm10": 23.9,
                "nh3": 10.64
            },
            "dt": 1648069200
        },
        {
            "main": {
                "aqi": 3
            },
            "components": {
                "co": 277.04,
                "no": 0,
                "no2": 2.87,
                "o3": 82.97,
                "so2": 0.36,
                "pm2_5": 23.7,
                "pm10": 25.05,
                "nh3": 6.21
            },
            "dt": 1648072800
        },
        {
            "main": {
                "aqi": 3
            },
            "components": {
                "co": 283.72,
                "no": 0,
                "no2": 2.29,
                "o3": 87.26,
                "so2": 0.35,
                "pm2_5": 24.68,
                "pm10": 26,
                "nh3": 5.51
            },
            "dt": 1648076400
        },
        {
            "main": {
                "aqi": 4
            },
            "components": {
                "co": 287.06,
                "no": 0,
                "no2": 1.71,
                "o3": 91.55,
                "so2": 0.38,
                "pm2_5": 25.37,
                "pm10": 26.67,
                "nh3": 6.02
            },
            "dt": 1648080000
        }
    ]
}